{
  "package": {
    "productName": "tauri-app",
    "version": "0.1.0"
  },
  "build": {
    "distDir": "../dist",
    "devPath": "../dist",
    "beforeDevCommand": "",
    "beforeBuildCommand": "",
		"withGlobalTauri": true    
  },
  "tauri": {
    "bundle": {
      "active": true,
      "targets": "all",
      "identifier": "com.tauri.dev",
      "icon": [
        "icons/32x32.png",
        "icons/128x128.png",
        "icons/128x128@2x.png",
        "icons/icon.icns",
        "icons/icon.ico"
      ],
      "resources": [],
      "externalBin": [],
      "copyright": "",
      "category": "DeveloperTool",
      "shortDescription": "",
      "longDescription": "",
      "deb": {
        "depends": [],
        "useBootstrapper": false
      },
      "macOS": {
        "frameworks": [],
        "minimumSystemVersion": "",
        "useBootstrapper": false,
        "exceptionDomain": "",
        "signingIdentity": null,
        "entitlements": null
      },
      "windows": {
        "certificateThumbprint": null,
        "digestAlgorithm": "sha256",
        "timestampUrl": ""
      }
    },
    "updater": {
      "active": false
    },
    "allowlist": {
      "all": true
    },
    "windows": [
      {
        "title": "Tauri App",
        "width": 800,
        "height": 600,
        "resizable": true,
        "fullscreen": false
      }
    ],
    "security": {
      "csp": "default-src blob: data: filesystem: ws: wss: http: https: tauri: 'unsafe-eval' 'unsafe-inline' 'self' img-src: 'self'"
    }
  }
}